<svg width="35" height="35" viewBox="0 0 35 35" fill="none" xmlns="http://www.w3.org/2000/svg">
<path d="M29.8744 5.12559C26.5691 1.82027 22.1744 0 17.5 0C12.8256 0 8.4309 1.82027 5.12559 5.12559C1.82034 8.4309 0 12.8256 0 17.5C0 22.1744 1.82034 26.5691 5.12559 29.8744C8.4309 33.1797 12.8256 35 17.5 35C22.1744 35 26.5691 33.1797 29.8744 29.8744C33.1797 26.5691 35 22.1744 35 17.5C35 12.8256 33.1797 8.4309 29.8744 5.12559ZM17.5 32.9492C8.98126 32.9492 2.05078 26.0187 2.05078 17.5C2.05078 8.98126 8.98126 2.05078 17.5 2.05078C26.0187 2.05078 32.9492 8.98126 32.9492 17.5C32.9492 26.0187 26.0187 32.9492 17.5 32.9492Z" fill="white"/>
<path d="M18.5983 16.4746H16.4017C15.1502 16.4746 14.1321 15.4565 14.1321 14.2051C14.1321 12.9537 15.1503 11.9356 16.4017 11.9356H20.7949C21.3612 11.9356 21.8203 11.4765 21.8203 10.9102C21.8203 10.3439 21.3612 9.88483 20.7949 9.88483H18.5254V7.6153C18.5254 7.04901 18.0663 6.5899 17.5 6.5899C16.9337 6.5899 16.4746 7.04901 16.4746 7.6153V9.88483H16.4017C14.0195 9.88483 12.0814 11.823 12.0814 14.2051C12.0814 16.5873 14.0196 18.5254 16.4017 18.5254H18.5984C19.8498 18.5254 20.8679 19.5435 20.8679 20.7949C20.8679 22.0463 19.8498 23.0644 18.5984 23.0644H14.2051C13.6389 23.0644 13.1798 23.5235 13.1798 24.0898C13.1798 24.6561 13.6389 25.1152 14.2051 25.1152H16.4746V27.3848C16.4746 27.9511 16.9337 28.4102 17.5 28.4102C18.0663 28.4102 18.5254 27.9511 18.5254 27.3848V25.1152H18.5983C20.9805 25.1152 22.9186 23.1771 22.9186 20.7949C22.9186 18.4127 20.9805 16.4746 18.5983 16.4746Z" fill="white"/>
</svg>
