<?xml version="1.0" encoding="UTF-8" standalone="no"?>
<svg width="14px" height="14px" viewBox="0 0 14 14" version="1.1" xmlns="http://www.w3.org/2000/svg" xmlns:xlink="http://www.w3.org/1999/xlink">
    <!-- Generator: Sketch 49.3 (51167) - http://www.bohemiancoding.com/sketch -->
    <title>instagram</title>
    <desc>Created with Sketch.</desc>
    <defs></defs>
    <g id="Page-1" stroke="none" stroke-width="1" fill="none" fill-rule="evenodd">
        <g id="instagram" fill-rule="nonzero">
            <path d="M0.0194544824,6.71464706 C0.0631015412,5.73629412 -0.0834852941,4.52323529 0.0779268824,3.32417647 C0.193453647,2.41784941 0.633124471,1.58397647 1.31569529,0.97664 C1.99826941,0.369301882 2.87760941,0.0295527647 3.79121647,0.0201764706 C5.90439294,-0.00672549294 8.01812118,-0.00672549294 10.1323765,0.0201764706 C12.2373176,0.0465294118 13.8827294,1.73147059 13.9115529,3.89076471 C13.9390588,5.96276471 13.9390588,8.03504471 13.9115529,10.1075882 C13.8843765,12.2182941 12.1821412,13.8884118 10.0574353,13.9065294 C7.99862824,13.9246471 5.93980471,13.9246471 3.88098118,13.9065294 C1.72168706,13.8900588 0.0383980471,12.1902941 0.0219274588,10.0293529 C0.00957451765,9.00076471 0.0194544824,7.97135294 0.0194544824,6.71464706 Z M10.8274353,6.86617647 C10.7006118,4.63852941 8.94896471,2.98817647 6.83004,3.09852941 C4.63862824,3.21382353 2.98827529,5.00582353 3.11098118,7.13794118 C3.23451059,9.28488235 5.03804,10.9500588 7.10345176,10.8248824 C9.27590588,10.6931176 10.9443765,8.91923529 10.8274353,6.86617647 Z" id="Shape" fill="#020202"></path>
            <path d="M7.01945176,4.66158824 C8.31731765,4.69205882 9.29814118,5.72805059 9.26931765,7.03663882 C9.26157647,7.33785294 9.19429412,7.63454588 9.07134118,7.90962941 C8.94838824,8.18471294 8.77223529,8.43277647 8.55292941,8.6394 C8.33370588,8.84610588 8.07572706,9.00735294 7.79388235,9.11391765 C7.51203765,9.22048235 7.21188588,9.27014118 6.91074588,9.26017647 C5.61698118,9.23135294 4.64027529,8.19946235 4.66086353,6.88346235 C4.67980471,5.63416824 5.74298118,4.63194118 7.01945176,4.66158824 Z" id="Shape" fill="#010101"></path>
        </g>
    </g>
</svg>