<?xml version="1.0" encoding="UTF-8" standalone="no"?>
<svg width="32px" height="30px" viewBox="0 0 32 30" version="1.1" xmlns="http://www.w3.org/2000/svg" xmlns:xlink="http://www.w3.org/1999/xlink">
    <!-- Generator: Sketch 49.3 (51167) - http://www.bohemiancoding.com/sketch -->
    <title>tour</title>
    <desc>Created with Sketch.</desc>
    <defs></defs>
    <g id="Page-1" stroke="none" stroke-width="1" fill="none" fill-rule="evenodd">
        <g id="tour" fill="#959292" fill-rule="nonzero">
            <path d="M31.6097984,9.81081116 C31.5316589,9.72973391 30.6731163,9.40539914 29.3463566,9 C29.2683411,9 29.1902016,8.91892275 29.1902016,8.83783262 C26.9268837,3.64864378 21.8536434,0 16,0 C10.1463442,0 5.1512186,3.64864378 2.88780155,8.83783262 C2.88780155,8.91892275 2.80976124,8.91892275 2.73170853,9 C1.40487442,9.48648927 0.546341705,9.81081116 0.468292713,9.81081116 L0,10.0540558 L0,19.8648927 L0.468292713,20.0269957 C0.546341705,20.0269957 1.32683411,20.3513305 2.5756155,20.7567811 C2.65365581,20.7567811 2.73170853,20.837897 2.73170853,20.9188841 C4.91707287,26.2702146 10.0682915,30 16,30 C21.9316589,30 27.0048992,26.2702146 29.1902016,21 C29.1902016,20.9188841 29.2683411,20.9188841 29.3463566,20.837897 C30.6731163,20.3513305 31.4536434,20.0269957 31.5316589,20.0269957 L32,19.7837768 L32,9.97297854 L31.6097984,9.81081116 Z M16,1.62162232 C20.5268837,1.62162232 24.5072868,4.05405579 26.7707287,7.70269957 C26.9268837,7.94594421 26.6927132,8.18918884 26.4585426,8.10811159 C23.4927132,7.29730043 19.5902016,6.48648927 15.843845,6.48648927 C12.1756155,6.48648927 8.42927132,7.29730043 5.54145736,8.10811159 C5.30731163,8.18918884 5.1512186,7.94594421 5.22927132,7.70269957 C7.57072868,4.05405579 11.5512186,1.62162232 16,1.62162232 Z M16,28.3783262 C11.3951256,28.3783262 7.33658295,25.8648927 5.07316589,21.9730043 C4.91707287,21.7297854 5.1512186,21.4864378 5.38536434,21.5675536 C8.42927132,22.3783262 12.3317085,23.2702146 16,23.2702146 C19.9023876,23.2702146 23.7268837,22.4594421 26.6146977,21.6486695 C26.8487442,21.5675536 27.0048992,21.8107725 26.9268837,22.0539914 C24.6634419,25.8648927 20.6048992,28.3783262 16,28.3783262 Z M30.5170853,18.5675536 C30.5170853,18.6486695 30.4390698,18.8107725 30.3609302,18.8107725 C28.4097984,19.5405579 22.243845,21.7297854 16,21.7297854 C10.4585426,21.7297854 3.8243845,19.5405579 1.71707287,18.8107725 C1.63902016,18.8107725 1.56097984,18.6486695 1.56097984,18.5675536 L1.56097984,11.3513562 C1.56097984,11.2702661 1.63902016,11.1081116 1.71707287,11.1081116 C3.74634419,10.3783777 9.99025116,8.18918884 15.9219845,8.18918884 C21.7756279,8.18918884 28.3316589,10.3783777 30.3609302,11.1081116 C30.4390698,11.1081116 30.5170853,11.2702661 30.5170853,11.3513562 L30.5170853,18.5675536 Z" id="Shape"></path>
            <path d="M14.5607442,17.8351931 L19.5456744,14.8488412 C19.7793488,14.6875107 19.7793488,14.2839914 19.5456744,14.2032618 L14.5607442,11.1362833 C14.3270698,10.9748627 14.0155039,11.1362833 14.0155039,11.4591245 L14.0155039,17.4315451 C14.0155039,17.8351931 14.3270698,17.9965236 14.5607442,17.8351931 Z" id="Shape"></path>
        </g>
    </g>
</svg>